<mxfile host="app.diagrams.net" modified="2023-01-13T16:36:42.646Z" agent="5.0 (Macintosh; Intel Mac OS X 10_15_7) AppleWebKit/605.1.15 (KHTML, like Gecko) Version/16.2 Safari/605.1.15" version="20.8.5" etag="kM5dURX-e56AZcVxmfZI" type="gitlab">
  <diagram id="tvfwOU-6McsOz-QsIPRg" name="Seite-1">
    <mxGraphModel dx="1010" dy="726" grid="1" gridSize="10" guides="1" tooltips="1" connect="1" arrows="1" fold="1" page="1" pageScale="1" pageWidth="1100" pageHeight="850" math="0" shadow="0">
      <root>
        <mxCell id="0" />
        <mxCell id="1" parent="0" />
        <mxCell id="eT2zPFXkjJ1LeizMQAKf-6" style="edgeStyle=orthogonalEdgeStyle;rounded=0;orthogonalLoop=1;jettySize=auto;html=1;fontFamily=Lucida Console;" edge="1" parent="1" source="eT2zPFXkjJ1LeizMQAKf-1" target="eT2zPFXkjJ1LeizMQAKf-3">
          <mxGeometry relative="1" as="geometry" />
        </mxCell>
        <mxCell id="eT2zPFXkjJ1LeizMQAKf-1" value="Login Page" style="rounded=0;whiteSpace=wrap;html=1;fontFamily=Lucida Console;" vertex="1" parent="1">
          <mxGeometry x="600" y="120" width="120" height="60" as="geometry" />
        </mxCell>
        <mxCell id="eT2zPFXkjJ1LeizMQAKf-10" style="edgeStyle=orthogonalEdgeStyle;rounded=0;orthogonalLoop=1;jettySize=auto;html=1;fontFamily=Lucida Console;" edge="1" parent="1" source="eT2zPFXkjJ1LeizMQAKf-2" target="eT2zPFXkjJ1LeizMQAKf-9">
          <mxGeometry relative="1" as="geometry" />
        </mxCell>
        <mxCell id="eT2zPFXkjJ1LeizMQAKf-14" style="edgeStyle=orthogonalEdgeStyle;rounded=0;orthogonalLoop=1;jettySize=auto;html=1;fontFamily=Lucida Console;" edge="1" parent="1" source="eT2zPFXkjJ1LeizMQAKf-2" target="eT2zPFXkjJ1LeizMQAKf-12">
          <mxGeometry relative="1" as="geometry" />
        </mxCell>
        <mxCell id="eT2zPFXkjJ1LeizMQAKf-15" style="edgeStyle=orthogonalEdgeStyle;rounded=0;orthogonalLoop=1;jettySize=auto;html=1;fontFamily=Lucida Console;" edge="1" parent="1" source="eT2zPFXkjJ1LeizMQAKf-2" target="eT2zPFXkjJ1LeizMQAKf-13">
          <mxGeometry relative="1" as="geometry" />
        </mxCell>
        <mxCell id="eT2zPFXkjJ1LeizMQAKf-17" style="edgeStyle=orthogonalEdgeStyle;rounded=0;orthogonalLoop=1;jettySize=auto;html=1;fontFamily=Lucida Console;fontColor=#FF9933;" edge="1" parent="1" source="eT2zPFXkjJ1LeizMQAKf-2" target="eT2zPFXkjJ1LeizMQAKf-16">
          <mxGeometry relative="1" as="geometry" />
        </mxCell>
        <mxCell id="eT2zPFXkjJ1LeizMQAKf-2" value="UI" style="ellipse;whiteSpace=wrap;html=1;aspect=fixed;fontFamily=Lucida Console;fillColor=#e1d5e7;strokeColor=#9673a6;" vertex="1" parent="1">
          <mxGeometry x="380" y="300" width="120" height="120" as="geometry" />
        </mxCell>
        <mxCell id="eT2zPFXkjJ1LeizMQAKf-7" style="edgeStyle=orthogonalEdgeStyle;rounded=0;orthogonalLoop=1;jettySize=auto;html=1;fontFamily=Lucida Console;" edge="1" parent="1" source="eT2zPFXkjJ1LeizMQAKf-3" target="eT2zPFXkjJ1LeizMQAKf-4">
          <mxGeometry relative="1" as="geometry" />
        </mxCell>
        <mxCell id="eT2zPFXkjJ1LeizMQAKf-3" value="Complete Orbit Situation" style="rounded=0;whiteSpace=wrap;html=1;fontFamily=Lucida Console;" vertex="1" parent="1">
          <mxGeometry x="840" y="120" width="120" height="60" as="geometry" />
        </mxCell>
        <mxCell id="eT2zPFXkjJ1LeizMQAKf-8" style="edgeStyle=orthogonalEdgeStyle;rounded=0;orthogonalLoop=1;jettySize=auto;html=1;fontFamily=Lucida Console;" edge="1" parent="1" source="eT2zPFXkjJ1LeizMQAKf-4" target="eT2zPFXkjJ1LeizMQAKf-5">
          <mxGeometry relative="1" as="geometry" />
        </mxCell>
        <mxCell id="eT2zPFXkjJ1LeizMQAKf-19" style="edgeStyle=orthogonalEdgeStyle;rounded=0;orthogonalLoop=1;jettySize=auto;html=1;fontFamily=Lucida Console;fontColor=#FF9933;" edge="1" parent="1" source="eT2zPFXkjJ1LeizMQAKf-4" target="eT2zPFXkjJ1LeizMQAKf-18">
          <mxGeometry relative="1" as="geometry" />
        </mxCell>
        <mxCell id="eT2zPFXkjJ1LeizMQAKf-4" value="All User&#39;s Assets&lt;br&gt;- Overview&lt;br&gt;- Summary" style="rounded=0;whiteSpace=wrap;html=1;fontFamily=Lucida Console;" vertex="1" parent="1">
          <mxGeometry x="840" y="285" width="120" height="60" as="geometry" />
        </mxCell>
        <mxCell id="eT2zPFXkjJ1LeizMQAKf-5" value="Single Asset View" style="rounded=0;whiteSpace=wrap;html=1;fontFamily=Lucida Console;" vertex="1" parent="1">
          <mxGeometry x="940" y="440" width="120" height="60" as="geometry" />
        </mxCell>
        <mxCell id="eT2zPFXkjJ1LeizMQAKf-11" style="edgeStyle=orthogonalEdgeStyle;rounded=0;orthogonalLoop=1;jettySize=auto;html=1;fontFamily=Lucida Console;" edge="1" parent="1" source="eT2zPFXkjJ1LeizMQAKf-9" target="eT2zPFXkjJ1LeizMQAKf-1">
          <mxGeometry relative="1" as="geometry" />
        </mxCell>
        <mxCell id="eT2zPFXkjJ1LeizMQAKf-9" value="STM&lt;br&gt;App" style="ellipse;whiteSpace=wrap;html=1;aspect=fixed;fontFamily=Lucida Console;fillColor=#dae8fc;strokeColor=#6c8ebf;" vertex="1" parent="1">
          <mxGeometry x="400" y="110" width="80" height="80" as="geometry" />
        </mxCell>
        <mxCell id="eT2zPFXkjJ1LeizMQAKf-12" value="DRM&lt;br&gt;App" style="ellipse;whiteSpace=wrap;html=1;aspect=fixed;fontFamily=Lucida Console;fillColor=#f5f5f5;fontColor=#333333;strokeColor=#666666;" vertex="1" parent="1">
          <mxGeometry x="550" y="260" width="80" height="80" as="geometry" />
        </mxCell>
        <mxCell id="eT2zPFXkjJ1LeizMQAKf-13" value="XY&lt;br&gt;App" style="ellipse;whiteSpace=wrap;html=1;aspect=fixed;fontFamily=Lucida Console;fillColor=#f5f5f5;strokeColor=#666666;fontColor=#333333;" vertex="1" parent="1">
          <mxGeometry x="550" y="380" width="80" height="80" as="geometry" />
        </mxCell>
        <mxCell id="eT2zPFXkjJ1LeizMQAKf-16" value="&lt;font color=&quot;#ff9933&quot;&gt;Dashboard&lt;/font&gt;" style="ellipse;whiteSpace=wrap;html=1;aspect=fixed;fontFamily=Lucida Console;fillColor=#647687;strokeColor=#314354;fontColor=#ffffff;" vertex="1" parent="1">
          <mxGeometry x="250" y="110" width="80" height="80" as="geometry" />
        </mxCell>
        <mxCell id="eT2zPFXkjJ1LeizMQAKf-18" value="Manage Space Assets" style="rounded=0;whiteSpace=wrap;html=1;fontFamily=Lucida Console;" vertex="1" parent="1">
          <mxGeometry x="770" y="440" width="120" height="60" as="geometry" />
        </mxCell>
      </root>
    </mxGraphModel>
  </diagram>
</mxfile>
